%YAML 1.1
%TAG !u! tag:unity3d.com,2011:
--- !u!74 &7400000
AnimationClip:
  m_ObjectHideFlags: 0
  m_CorrespondingSourceObject: {fileID: 0}
  m_PrefabInstance: {fileID: 0}
  m_PrefabAsset: {fileID: 0}
  m_Name: MonsterTurtleMove
  serializedVersion: 6
  m_Legacy: 0
  m_Compressed: 0
  m_UseHighQualityCurve: 1
  m_RotationCurves: []
  m_CompressedRotationCurves: []
  m_EulerCurves: []
  m_PositionCurves: []
  m_ScaleCurves: []
  m_FloatCurves: []
  m_PPtrCurves:
  - curve:
    - time: 0
      value: {fileID: 21300000, guid: 87ccd2fefc6067546ba61e35448ce40c, type: 3}
    - time: 0.13333334
      value: {fileID: 21300000, guid: ae2a1620ad025994fb1360d820a99934, type: 3}
    - time: 0.26666668
      value: {fileID: 21300000, guid: 093388d8b6fd85c428eb534a89a5c780, type: 3}
    - time: 0.4
      value: {fileID: 21300000, guid: 294d51fe651579341af64e746473be8c, type: 3}
    - time: 0.51666665
      value: {fileID: 21300000, guid: 65dc3a1cf9f87504ab2311dc47326e72, type: 3}
    - time: 0.65
      value: {fileID: 21300000, guid: e730114712ccdc646a9251cb33c9d3ac, type: 3}
    - time: 0.78333336
      value: {fileID: 21300000, guid: 3c6b607e35e1206468fba4d54437f9b2, type: 3}
    - time: 0.9166667
      value: {fileID: 21300000, guid: ab2dfd3a7c97e3548973a8bf49f70450, type: 3}
    attribute: m_Sprite
    path: 
    classID: 212
    script: {fileID: 0}
  m_SampleRate: 60
  m_WrapMode: 0
  m_Bounds:
    m_Center: {x: 0, y: 0, z: 0}
    m_Extent: {x: 0, y: 0, z: 0}
  m_ClipBindingConstant:
    genericBindings:
    - serializedVersion: 2
      path: 0
      attribute: 0
      script: {fileID: 0}
      typeID: 212
      customType: 23
      isPPtrCurve: 1
    pptrCurveMapping:
    - {fileID: 21300000, guid: 87ccd2fefc6067546ba61e35448ce40c, type: 3}
    - {fileID: 21300000, guid: ae2a1620ad025994fb1360d820a99934, type: 3}
    - {fileID: 21300000, guid: 093388d8b6fd85c428eb534a89a5c780, type: 3}
    - {fileID: 21300000, guid: 294d51fe651579341af64e746473be8c, type: 3}
    - {fileID: 21300000, guid: 65dc3a1cf9f87504ab2311dc47326e72, type: 3}
    - {fileID: 21300000, guid: e730114712ccdc646a9251cb33c9d3ac, type: 3}
    - {fileID: 21300000, guid: 3c6b607e35e1206468fba4d54437f9b2, type: 3}
    - {fileID: 21300000, guid: ab2dfd3a7c97e3548973a8bf49f70450, type: 3}
  m_AnimationClipSettings:
    serializedVersion: 2
    m_AdditiveReferencePoseClip: {fileID: 0}
    m_AdditiveReferencePoseTime: 0
    m_StartTime: 0
    m_StopTime: 0.93333334
    m_OrientationOffsetY: 0
    m_Level: 0
    m_CycleOffset: 0
    m_HasAdditiveReferencePose: 0
    m_LoopTime: 1
    m_LoopBlend: 0
    m_LoopBlendOrientation: 0
    m_LoopBlendPositionY: 0
    m_LoopBlendPositionXZ: 0
    m_KeepOriginalOrientation: 0
    m_KeepOriginalPositionY: 1
    m_KeepOriginalPositionXZ: 0
    m_HeightFromFeet: 0
    m_Mirror: 0
  m_EditorCurves: []
  m_EulerEditorCurves: []
  m_HasGenericRootTransform: 0
  m_HasMotionFloatCurves: 0
  m_Events: []
