%YAML 1.1
%TAG !u! tag:unity3d.com,2011:
--- !u!114 &11400000
MonoBehaviour:
  m_ObjectHideFlags: 0
  m_CorrespondingSourceObject: {fileID: 0}
  m_PrefabInstance: {fileID: 0}
  m_PrefabAsset: {fileID: 0}
  m_GameObject: {fileID: 0}
  m_Enabled: 1
  m_EditorHideFlags: 0
  m_Script: {fileID: 11500000, guid: d1c82681028b47bea7027a9fd78443c2, type: 3}
  m_Name: Audio Sound Coin
  m_EditorClassIdentifier: 
  clipSound: {fileID: 8300000, guid: 08e7f770da5303f4c83595a5b9911167, type: 3}
  clipName: Sound Coin
